^C:\USERS\MASTER BRENDAN\DOCUMENTS\ALLEGROPROJECTS\ALLEGROTEST1\ALLEGROTEST1\MAIN.CPP
C:\USERS\MASTER BRENDAN\DOCUMENTS\ALLEGROPROJECTS\ALLEGROTEST1\ALLEGROTEST1\DEBUG\VC140.PDB
C:\USERS\MASTER BRENDAN\DOCUMENTS\ALLEGROPROJECTS\ALLEGROTEST1\ALLEGROTEST1\DEBUG\VC140.IDB
C:\USERS\MASTER BRENDAN\DOCUMENTS\ALLEGROPROJECTS\ALLEGROTEST1\ALLEGROTEST1\DEBUG\MAIN.OBJ
